…
# save this to file in case you want to come back to it later
# save(b16.markers, file = "b16_all_markers_res06_v3.Robj")
```

``` r
top_markers_all <- b16.markers %>% group_by(cluster) %>% top_n(n = 10, wt = avg_logFC)
# write.csv(top_markers_all, file = "b16_all_markers_res06_v3.csv")
top_markers_all
```

    ## # A tibble: 170 x 7
    ## # Groups:   cluster [17]
    ##        p_val avg_logFC pct.1 pct.2 p_val_adj cluster gene  
    ##        <dbl>     <dbl> <dbl> <dbl>     <dbl> <fct>   <chr>
    ##  1 0.            1.23  0.886 0.324 0.        0       Lpl   
    ##  2 0.            1.08  0.988 0.622 0.        0       C1qc  
    ##  3 0.            1.08  0.931 0.395 0.        0       Ms4a7
    ##  4 0.            1.07  0.929 0.406 0.        0       Fcgr4
    ##  5 0.            1.01  0.987 0.613 0.        0       C1qa  
    ##  6 0.            0.996 0.735 0.211 0.        0       Cd72  
    ##  7 0.            0.959 0.99  0.683 0.        0       C1qb  
    ##  8 0.            0.937 0.717 0.172 0.        0       Slamf9
    ##  9 1.01e-289     0.847 0.988 0.88  1.74e-285 0       Pycard
    ## 10 6.63e-114     0.906 0.863 0.717 1.14e-109 0       Atp1b3
    ## # … with 160 more rows
…
# save the markers in case you want to come back to it later
# save(b16.markers, file = "b16_immune_markers_res06_v3.Robj")
```

``` r
top_markers_immune <- b16.markers %>% group_by(cluster) %>% top_n(n = 10, wt = avg_logFC)
# write.csv(top_markers_immune, file = "b16_immune_markers_res06_v3.csv")
top_markers_immune
```

    ## # A tibble: 140 x 7
    ## # Groups:   cluster [14]
    ##        p_val avg_logFC pct.1 pct.2 p_val_adj cluster gene   
    ##        <dbl>     <dbl> <dbl> <dbl>     <dbl> <fct>   <chr>  
    ##  1 0.            1.14  0.868 0.389 0.        0       Ms4a4c
    ##  2 1.24e-301     1.01  0.987 0.756 2.14e-297 0       Cd74   
    ##  3 1.13e-299     1.07  0.901 0.507 1.95e-295 0       H2-DMb1
    ##  4 5.70e-286     1.10  0.963 0.725 9.79e-282 0       H2-Ab1
    ##  5 6.78e-246     1.26  0.716 0.3   1.17e-241 0       Il1b   
    ##  6 7.11e-211     0.997 0.831 0.491 1.22e-206 0       Isg15  
    ##  7 1.11e-202     0.988 0.792 0.453 1.91e-198 0       Gbp2   
    ##  8 7.45e-196     1.23  0.654 0.288 1.28e-191 0       Cxcl9  
    ##  9 4.03e-171     1.04  0.675 0.315 6.94e-167 0       Ly6c2  
    ## 10 8.54e-128     1.38  0.559 0.271 1.47e-123 0       Cxcl10
    ## # … with 130 more rows
…
# save the markers now in case you want to come back to it later
# save(b16.markers, file = "b16_aggregate_markers_res06_v3.Robj")
```

``` r
top_markers_aggregate <- b16.markers %>% group_by(cluster) %>% top_n(n = 10, wt = avg_logFC)
# write.csv(top_markers_aggregate, file = "b16_aggregate_markers_res06_v3.csv")
top_markers_aggregate
```

    ## # A tibble: 90 x 7
    ## # Groups:   cluster [9]
    ##        p_val avg_logFC pct.1 pct.2 p_val_adj cluster gene  
    ##        <dbl>     <dbl> <dbl> <dbl>     <dbl> <fct>   <chr>
    ##  1 0.             2.32 0.843 0.285 0.        TAM     Pf4   
    ##  2 0.             2.24 0.912 0.618 0.        TAM     Apoe  
    ##  3 0.             2.23 0.863 0.461 0.        TAM     Sepp1
    ##  4 0.             1.76 0.869 0.499 0.        TAM     Ccl8  
    ##  5 0.             1.73 0.977 0.704 0.        TAM     Wfdc17
    ##  6 0.             1.68 0.888 0.364 0.        TAM     Hmox1
    ##  7 0.             1.68 0.802 0.245 0.        TAM     Timp2
    ##  8 0.             1.63 0.843 0.336 0.        TAM     Ctsl  
    ##  9 3.44e-215      1.75 0.403 0.096 5.91e-211 TAM     Arg1  
    ## 10 6.19e-171      2.31 0.324 0.072 1.06e-166 TAM     Saa3  
    ## # … with 80 more rows
…
get_group_proportions(b16.combined)
```

    ## # A tibble: 36 x 5
    ## # Groups:   active.ident [9]
    ##    active.ident orig.ident     n total.pop proportion
    ##    <fct>        <fct>      <int>     <int>      <dbl>
    ##  1 TAM          ADAR_S1      671      1590     0.422
    ##  2 TAM          ADAR_S2      393      1633     0.241
    ##  3 TAM          Control_S3   790      1674     0.472
    ##  4 TAM          Control_S4  1797      2455     0.732
    ##  5 Monocyte     ADAR_S1      384      1590     0.242
    ##  6 Monocyte     ADAR_S2      655      1633     0.401
    ##  7 Monocyte     Control_S3   386      1674     0.231
    ##  8 Monocyte     Control_S4   217      2455     0.0884
    ##  9 cDC1         ADAR_S1       32      1590     0.0201
    ## 10 cDC1         ADAR_S2       26      1633     0.0159
    ## # … with 26 more rows
…
